
type 2 side 0
[1,45]((0.00000,-0.25000,0.25000,0.00000,-0.25000,0.00000,0.25000,-0.25000,0.00000,0.00000,0.00000,0.00000,0.00000,0.00000,0.00000,0.00000,0.00000,0.00000,0.00000,0.12500,-0.12500,0.00000,0.12500,0.00000,-0.12500,0.12500,0.00000,0.00000,-0.01562,0.00000,0.00000,0.00000,0.00000,0.00000,0.00000,0.00000,0.00000,0.00000,0.00000,0.00000,0.00000,0.00000,0.00000,0.00000,0.00000))

type 2 side 1
[1,45]((0.00000,0.00000,0.25000,0.25000,0.00000,0.00000,0.00000,0.25000,0.00000,0.00000,0.00000,0.00000,0.00000,0.00000,0.00000,0.00000,0.00000,0.00000,0.00000,0.00000,-0.12500,-0.12500,0.00000,0.00000,0.00000,-0.12500,0.00000,0.01562,0.00000,0.00000,0.00000,0.00000,0.00000,0.00000,0.00000,0.00000,0.00000,0.00000,0.00000,0.00000,0.00000,0.00000,0.00000,0.00000,0.00000))

type 2 side 2
[1,45]((-0.25000,0.25000,0.00000,-0.25000,0.00000,0.00000,-0.25000,0.00000,0.25000,0.00000,0.00000,0.00000,0.00000,0.00000,0.00000,0.00000,0.00000,0.00000,0.12500,-0.12500,0.00000,0.12500,0.00000,0.00000,0.12500,0.00000,-0.12500,-0.01562,0.00000,0.00000,0.00000,0.00000,0.00000,0.00000,0.00000,0.00000,0.00000,0.00000,0.00000,0.00000,0.00000,0.00000,0.00000,0.00000,0.00000))

type 2 side 3
[1,45]((0.25000,0.00000,-0.25000,0.00000,0.00000,-0.25000,0.00000,0.25000,-0.25000,0.00000,0.00000,0.00000,0.00000,0.00000,0.00000,0.00000,0.00000,0.00000,-0.12500,0.00000,0.12500,0.00000,0.00000,0.12500,0.00000,-0.12500,0.12500,0.00000,0.00000,-0.01562,0.00000,0.00000,0.00000,0.00000,0.00000,0.00000,0.00000,0.00000,0.00000,0.00000,0.00000,0.00000,0.00000,0.00000,0.00000))

type 5 side 0
[1,135]((0.06250,0.00000,0.00000,-0.04419,0.04419,0.00000,0.00000,-0.06250,0.00000,0.00000,0.00000,0.06250,-0.04419,0.00000,0.04419,0.00000,-0.04419,0.04419,0.00000,0.00000,0.00000,0.00000,0.00000,0.00000,0.00000,0.00000,0.00000,0.00000,0.00000,0.00000,0.00000,0.00000,0.00000,0.00000,0.00000,0.00000,0.01562,0.00000,0.00000,0.00000,0.00000,0.01562,-0.01105,0.01105,0.00000,-0.01105,0.00000,0.01105,0.00000,0.01562,0.00000,0.00000,0.00000,0.01562,0.01562,0.00000,0.00000,0.00000,0.01562,0.00000,-0.03125,0.00000,0.00000,0.02210,-0.02210,0.00000,0.00000,0.03125,0.00000,0.00000,0.00000,-0.03125,0.02210,0.00000,-0.02210,0.00000,0.02210,-0.02210,0.00000,0.00000,0.00000,0.00000,0.00000,0.00000,0.00000,0.00000,0.00000,0.00000,0.00000,0.00000,0.00000,0.00000,0.00000,0.00000,0.00000,0.00000,0.00000,0.00000,0.00000,0.00000,0.00000,0.00000,0.00000,0.00000,0.00000,0.00000,0.00000,0.00000,0.00000,0.00000,0.00000,0.00000,0.00000,0.00000,0.00000,0.00000,0.00000,0.00000,0.00000,0.00000,0.00000,0.00000,0.00000,0.00000,0.00000,0.00000,0.00391,0.00000,0.00000,0.00000,0.00391,0.00000,0.00000,0.00000,0.00391))
